<svg width="33" height="33" viewBox="0 0 33 33" fill="none" xmlns="http://www.w3.org/2000/svg">
<g clip-path="url(#clip0)">
<path d="M16.4958 0L16.2744 0.752026V22.5721L16.4958 22.793L26.6243 16.806L16.4958 0Z" fill="#343434"/>
<path d="M16.4939 0L6.36523 16.806L16.4939 22.793V12.2021V0Z" fill="#8C8C8C"/>
<path d="M16.4959 24.7078L16.3711 24.86V32.6326L16.4959 32.9969L26.6305 18.7239L16.4959 24.7078Z" fill="#3C3C3B"/>
<path d="M16.4939 32.9969V24.7078L6.36523 18.7239L16.4939 32.9969Z" fill="#8C8C8C"/>
<path d="M16.4922 22.7964L26.6206 16.8094L16.4922 12.2056V22.7964Z" fill="#141414"/>
<path d="M6.36523 16.8094L16.4939 22.7964V12.2056L6.36523 16.8094Z" fill="#393939"/>
</g>
<defs>
<clipPath id="clip0">
<rect width="33" height="33" fill="white"/>
</clipPath>
</defs>
</svg>
